Capítulo 5
…
rel_por_religiao <- gss_sm %>% 
  group_by(bigregion, religion) %>% 
  summarize(N = n()) %>% 
  mutate(freq = N / sum(N), pct = round(freq*100), 0)

## `summarise()` has grouped output by 'bigregion'. You can override using the
## `.groups` argument.

rel_por_religiao

## # A tibble: 24 × 6
## # Groups:   bigregion [4]
##    bigregion religion       N    freq   pct   `0`
##    <fct>     <fct>      <int>   <dbl> <dbl> <dbl>
##  1 Northeast Protestant   158 0.324      32     0
##  2 Northeast Catholic     162 0.332      33     0
##  3 Northeast Jewish        27 0.0553      6     0
##  4 Northeast None         112 0.230      23     0
##  5 Northeast Other         28 0.0574      6     0
##  6 Northeast <NA>           1 0.00205     0     0
##  7 Midwest   Protestant   325 0.468      47     0
##  8 Midwest   Catholic     172 0.247      25     0
##  9 Midwest   Jewish         3 0.00432     0     0
## 10 Midwest   None         157 0.226      23     0
## # ℹ 14 more rows
…
4.1 Usando ggrepel

Muitas das vezes apenas mudar o texto para um lado ou para o outro
não é o suficiente, então, utilizamos uma library chamada ggrepel, para
plotar texto. Nela há um um comando chamado geom_text_repel, para plotar
os textos de modo a não soprepor um ao outro

library(ggrepel)
elections_historic %>% select(2:7)

## # A tibble: 49 × 6
##     year winner                 win_party ec_pct popular_pct popular_margin
##    <int> <chr>                  <chr>      <dbl>       <dbl>          <dbl>
##  1  1824 John Quincy Adams      D.-R.      0.322       0.309        -0.104 
##  2  1828 Andrew Jackson         Dem.       0.682       0.559         0.122 
##  3  1832 Andrew Jackson         Dem.       0.766       0.547         0.178 
##  4  1836 Martin Van Buren       Dem.       0.578       0.508         0.142 
##  5  1840 William Henry Harrison Whig       0.796       0.529         0.0605
##  6  1844 James Polk             Dem.       0.618       0.495         0.0145
##  7  1848 Zachary Taylor         Whig       0.562       0.473         0.0479
##  8  1852 Franklin Pierce        Dem.       0.858       0.508         0.0695
##  9  1856 James Buchanan         Dem.       0.588       0.453         0.122 
## 10  1860 Abraham Lincoln        Rep.       0.594       0.396         0.101 
## # ℹ 39 more rows
…
